{
  "name": "ironsworn",
  "title": "Ironsworn",
  "description": "",
  "version": "0.1.1",
  "author": "",
  "authors": [{
    "name": "Camille Baillat",
    "email": "camille.baillat@pm.me",
    "url": ""
  }],
  "scripts": [],
  "esmodules": ["Ironsworn.js"],
  "styles": ["Ironsworn.css"],
  "packs": [],
  "languages": [{
      "lang": "en",
      "name": "English",
      "path": "lang/en.json"
    },
    {
      "lang": "fr",
      "name": "Français",
      "path": "lang/fr.json"
    }
  ],
  "gridDistance": 1,
  "gridUnits": "",
  "minimumCoreVersion": "0.5.5",
  "compatibleCoreVersion": "0.5.5",
  "url": "",
  "manifest": "",
  "download": "",
  "license": "",
  "readme": "",
  "bugs": "",
  "changelog": ""
}